<svg width="64" height="64" xmlns="http://www.w3.org/2000/svg">

 <g>
  <title>background</title>
  <rect fill="none" id="canvas_background" height="66" width="66" y="-1" x="-1"/>
 </g>
 <g>
  <title>Layer 1</title>
  <path id="svg_1" fill-rule="evenodd" clip-rule="evenodd" fill="#010101" d="m39.180015,42.240015l3.091,-1.854l0,1.687l-10.42,6.759l-10.189,-6.807l0,-1.588l3.048,1.806l0.339,0.2l0.313,-0.239l6.582,-5.052l6.58,5.052l0.315,0.239l0.341,-0.203zm-7.214,-19.06l10.021,5.757l-10.112,6.7l-10.049,-6.331l10.14,-6.126zm17.4,0.336l-10.324,-6.597l-7.098,5.952l-6.938,-5.952l-10.623,6.92l7.315,5.565l-7.315,5.565l7.278,4.312l3.345,1.98l6.938,-5.324l6.936,5.324l3.391,-2.035l7.096,-4.257l-6.775,-5.808l6.774,-5.645zm-17.491,38.359c-16.568,0 -30,-13.432 -30,-30c0,-16.569 13.432,-30 30,-30s30,13.431 30,30c0,16.568 -13.432,30 -30,30z"/>
 </g>
</svg>