<svg width="63" height="63" xmlns="http://www.w3.org/2000/svg">

 <g>
  <title>background</title>
  <rect fill="none" id="canvas_background" height="65" width="65" y="-1" x="-1"/>
 </g>
 <g>
  <title>Layer 1</title>
  <path id="svg_1" fill-rule="evenodd" clip-rule="evenodd" fill="#D8D9D8" d="m27.39,47.945l6.744,0l0,-16.322l4.499,0l0.596,-5.624l-5.095,0l0.007,-2.816c0,-1.466 0.14,-2.253 2.244,-2.253l2.812,0l0,-5.625l-4.5,0c-5.405,0 -7.307,2.729 -7.307,7.317l0,3.377l-3.369,0l0,5.625l3.369,0l0,16.321zm4.235,13.68c-16.568,0 -30,-13.431 -30,-30s13.432,-30 30,-30s30,13.431 30,30s-13.432,30 -30,30z"/>
 </g>
</svg>