<svg width="53" height="53" xmlns="http://www.w3.org/2000/svg">

 <g>
  <title>background</title>
  <rect fill="none" id="canvas_background" height="55" width="55" y="-1" x="-1"/>
 </g>
 <g>
  <title>Layer 1</title>
  <path id="svg_1" d="m26.473,1.908001c-13.6,0 -24.625,11.023 -24.625,24.623c0,13.6 11.025,24.625 24.625,24.625c13.598,0 24.623,-11.025 24.623,-24.625c0,-13.6 -11.026,-24.623 -24.623,-24.623zm-11.135,36.214l-0.256,-0.439l-4.256,-7.303l-0.088,-0.148l0.086,-0.148l9.785,-16.947l0.256,-0.443l0.258,0.441l4.256,7.3l0.086,0.148l-0.086,0.148l-9.786,16.949l-0.255,0.442zm26.121,-6.625l-4.197,7.336l-0.084,0.15l-0.172,0l-19.57,0l-0.51,0l0.254,-0.443l4.195,-7.336l0.086,-0.15l0.172,0l19.57,0l0.51,0l-0.254,0.443zm-0.256,-2.184l-8.451,0.035l-0.17,0l-0.086,-0.148l-9.785,-16.949l-0.256,-0.443l0.51,-0.001l8.451,-0.034l0.172,-0.001l0.086,0.147l9.785,16.949l0.256,0.441l-0.512,0.004z"/>
 </g>
</svg>