<svg width="53" height="53" xmlns="http://www.w3.org/2000/svg">

 <g>
  <title>background</title>
  <rect fill="none" id="canvas_background" height="55" width="55" y="-1" x="-1"/>
 </g>
 <g>
  <title>Layer 1</title>
  <path id="svg_1" d="m26.581632,1.87363c-13.5996,0 -24.625,11.0234 -24.625,24.623c0,13.5997 11.0254,24.625 24.625,24.625c13.5986,0 24.624,-11.0253 24.624,-24.625c0.0001,-13.5996 -11.0253,-24.623 -24.624,-24.623zm9.4379,33.3752l-18.5195,0c-3.4,0 -6.1562,-2.7562 -6.1562,-6.1562c0,-2.5728 1.5789,-4.7759 3.82,-5.6962c0.1645,-2.2299 2.0245,-3.9883 4.2963,-3.9883c0.7806,0 1.512,0.2086 2.1435,0.5715c1.3979,-2.5419 4.1006,-4.265 7.2064,-4.265c4.4742,0 8.1108,3.5755 8.2146,8.0247c2.7233,0.4762 4.7938,2.8507 4.7938,5.7104c0,3.2029 -2.5962,5.7991 -5.7989,5.7991z"/>
 </g>
</svg>